^C:\PROGRAM FILES (X86)\SALESFORCE.COM\CTI TOOLKIT 4.03\DEMOCTIADAPTER\SRC\CTIADAPTERLIB\RELEASESTATIC\CTIADAPTERLIB.LIB|C:\PROGRAM FILES (X86)\SALESFORCE.COM\CTI TOOLKIT 4.03\DEMOCTIADAPTER\SRC\DEMOADAPTER\RELEASESTATIC\DEMOADAPTER.OBJ|C:\PROGRAM FILES (X86)\SALESFORCE.COM\CTI TOOLKIT 4.03\DEMOCTIADAPTER\SRC\DEMOADAPTER\RELEASESTATIC\DEMOADAPTER.RES|C:\PROGRAM FILES (X86)\SALESFORCE.COM\CTI TOOLKIT 4.03\DEMOCTIADAPTER\SRC\DEMOADAPTER\RELEASESTATIC\DEMOADAPTERBASE.OBJ|C:\PROGRAM FILES (X86)\SALESFORCE.COM\CTI TOOLKIT 4.03\DEMOCTIADAPTER\SRC\DEMOADAPTER\RELEASESTATIC\DEMOEVENTSINK.OBJ|C:\PROGRAM FILES (X86)\SALESFORCE.COM\CTI TOOLKIT 4.03\DEMOCTIADAPTER\SRC\DEMOADAPTER\RELEASESTATIC\DEMOUSERINTERFACE.OBJ|C:\PROGRAM FILES (X86)\SALESFORCE.COM\CTI TOOLKIT 4.03\DEMOCTIADAPTER\SRC\DEMOADAPTER\RELEASESTATIC\STDAFX.OBJ
C:\PROGRAM FILES (X86)\SALESFORCE.COM\CTI TOOLKIT 4.03\DEMOCTIADAPTER\SRC\DEMOADAPTER\RELEASESTATIC\DEMOADAPTER.DLL
C:\PROGRAM FILES (X86)\SALESFORCE.COM\CTI TOOLKIT 4.03\DEMOCTIADAPTER\SRC\DEMOADAPTER\_DEMOADAPTER.IDL
C:\PROGRAM FILES (X86)\SALESFORCE.COM\CTI TOOLKIT 4.03\DEMOCTIADAPTER\SRC\DEMOADAPTER\_DEMOADAPTER.TLB
C:\PROGRAM FILES (X86)\SALESFORCE.COM\CTI TOOLKIT 4.03\DEMOCTIADAPTER\SRC\DEMOADAPTER\_DEMOADAPTER_P.C
C:\PROGRAM FILES (X86)\SALESFORCE.COM\CTI TOOLKIT 4.03\DEMOCTIADAPTER\SRC\DEMOADAPTER\DLLDATA.C
C:\PROGRAM FILES (X86)\SALESFORCE.COM\CTI TOOLKIT 4.03\DEMOCTIADAPTER\SRC\DEMOADAPTER\_DEMOADAPTER_I.C
C:\PROGRAM FILES (X86)\SALESFORCE.COM\CTI TOOLKIT 4.03\DEMOCTIADAPTER\SRC\DEMOADAPTER\_DEMOADAPTER.H
C:\PROGRAM FILES (X86)\SALESFORCE.COM\CTI TOOLKIT 4.03\DEMOCTIADAPTER\SRC\DEMOADAPTER\RELEASESTATIC\DEMOADAPTER.PDB
