^C:\PROGRAM FILES (X86)\SALESFORCE.COM\CTI TOOLKIT 4.03\DEMOCTIADAPTER\SRC\CTIADAPTERLIB\STDAFX.CPP
/c /I.\include /Zi /nologo /W3 /WX- /Od /Oy- /D WIN32 /D _DEBUG /D _LIB /D _UNICODE /D _VC80_UPGRADE=0x0710 /D _UNICODE /D UNICODE /D _ATL_DLL /Gm /EHa /RTC1 /MTd /GS /Gy /fp:precise /Zc:wchar_t- /Zc:forScope /GR /Yc"stdafx.h" /Fp"DEBUGSTATIC\CTIADAPTERLIB.PCH" /Fo"DEBUGSTATIC\\" /Fd"DEBUGSTATIC\VC110.PDB" /Gd /TP /analyze- C:\PROGRAM FILES (X86)\SALESFORCE.COM\CTI TOOLKIT 4.03\DEMOCTIADAPTER\SRC\CTIADAPTERLIB\STDAFX.CPP
^C:\PROGRAM FILES (X86)\SALESFORCE.COM\CTI TOOLKIT 4.03\DEMOCTIADAPTER\SRC\CTIADAPTERLIB\CRITICALSECTION.CPP
/c /I.\include /Zi /nologo /W3 /WX- /Od /Oy- /D WIN32 /D _DEBUG /D _LIB /D _UNICODE /D _VC80_UPGRADE=0x0710 /D _UNICODE /D UNICODE /D _ATL_DLL /Gm /EHa /RTC1 /MTd /GS /Gy /fp:precise /Zc:wchar_t- /Zc:forScope /GR /Yu"stdafx.h" /Fp"DEBUGSTATIC\CTIADAPTERLIB.PCH" /Fo"DEBUGSTATIC\\" /Fd"DEBUGSTATIC\VC110.PDB" /Gd /TP /analyze- C:\PROGRAM FILES (X86)\SALESFORCE.COM\CTI TOOLKIT 4.03\DEMOCTIADAPTER\SRC\CTIADAPTERLIB\CRITICALSECTION.CPP
^C:\PROGRAM FILES (X86)\SALESFORCE.COM\CTI TOOLKIT 4.03\DEMOCTIADAPTER\SRC\CTIADAPTERLIB\CTIAGENT.CPP
/c /I.\include /Zi /nologo /W3 /WX- /Od /Oy- /D WIN32 /D _DEBUG /D _LIB /D _UNICODE /D _VC80_UPGRADE=0x0710 /D _UNICODE /D UNICODE /D _ATL_DLL /Gm /EHa /RTC1 /MTd /GS /Gy /fp:precise /Zc:wchar_t- /Zc:forScope /GR /Yu"stdafx.h" /Fp"DEBUGSTATIC\CTIADAPTERLIB.PCH" /Fo"DEBUGSTATIC\\" /Fd"DEBUGSTATIC\VC110.PDB" /Gd /TP /analyze- C:\PROGRAM FILES (X86)\SALESFORCE.COM\CTI TOOLKIT 4.03\DEMOCTIADAPTER\SRC\CTIADAPTERLIB\CTIAGENT.CPP
^C:\PROGRAM FILES (X86)\SALESFORCE.COM\CTI TOOLKIT 4.03\DEMOCTIADAPTER\SRC\CTIADAPTERLIB\CTIAGENTSTATE.CPP
/c /I.\include /Zi /nologo /W3 /WX- /Od /Oy- /D WIN32 /D _DEBUG /D _LIB /D _UNICODE /D _VC80_UPGRADE=0x0710 /D _UNICODE /D UNICODE /D _ATL_DLL /Gm /EHa /RTC1 /MTd /GS /Gy /fp:precise /Zc:wchar_t- /Zc:forScope /GR /Yu"stdafx.h" /Fp"DEBUGSTATIC\CTIADAPTERLIB.PCH" /Fo"DEBUGSTATIC\\" /Fd"DEBUGSTATIC\VC110.PDB" /Gd /TP /analyze- C:\PROGRAM FILES (X86)\SALESFORCE.COM\CTI TOOLKIT 4.03\DEMOCTIADAPTER\SRC\CTIADAPTERLIB\CTIAGENTSTATE.CPP
^C:\PROGRAM FILES (X86)\SALESFORCE.COM\CTI TOOLKIT 4.03\DEMOCTIADAPTER\SRC\CTIADAPTERLIB\CTIAPPEXCHANGE.CPP
/c /I.\include /Zi /nologo /W3 /WX- /Od /Oy- /D WIN32 /D _DEBUG /D _LIB /D _UNICODE /D _VC80_UPGRADE=0x0710 /D _UNICODE /D UNICODE /D _ATL_DLL /Gm /EHa /RTC1 /MTd /GS /Gy /fp:precise /Zc:wchar_t- /Zc:forScope /GR /Yu"stdafx.h" /Fp"DEBUGSTATIC\CTIADAPTERLIB.PCH" /Fo"DEBUGSTATIC\\" /Fd"DEBUGSTATIC\VC110.PDB" /Gd /TP /analyze- C:\PROGRAM FILES (X86)\SALESFORCE.COM\CTI TOOLKIT 4.03\DEMOCTIADAPTER\SRC\CTIADAPTERLIB\CTIAPPEXCHANGE.CPP
^C:\PROGRAM FILES (X86)\SALESFORCE.COM\CTI TOOLKIT 4.03\DEMOCTIADAPTER\SRC\CTIADAPTERLIB\CTIAPPEXCHANGESAVETHREAD.CPP
/c /I.\include /Zi /nologo /W3 /WX- /Od /Oy- /D WIN32 /D _DEBUG /D _LIB /D _UNICODE /D _VC80_UPGRADE=0x0710 /D _UNICODE /D UNICODE /D _ATL_DLL /Gm /EHa /RTC1 /MTd /GS /Gy /fp:precise /Zc:wchar_t- /Zc:forScope /GR /Yu"stdafx.h" /Fp"DEBUGSTATIC\CTIADAPTERLIB.PCH" /Fo"DEBUGSTATIC\\" /Fd"DEBUGSTATIC\VC110.PDB" /Gd /TP /analyze- C:\PROGRAM FILES (X86)\SALESFORCE.COM\CTI TOOLKIT 4.03\DEMOCTIADAPTER\SRC\CTIADAPTERLIB\CTIAPPEXCHANGESAVETHREAD.CPP
^C:\PROGRAM FILES (X86)\SALESFORCE.COM\CTI TOOLKIT 4.03\DEMOCTIADAPTER\SRC\CTIADAPTERLIB\CTIAPPEXCHANGESEARCHTHREAD.CPP
/c /I.\include /Zi /nologo /W3 /WX- /Od /Oy- /D WIN32 /D _DEBUG /D _LIB /D _UNICODE /D _VC80_UPGRADE=0x0710 /D _UNICODE /D UNICODE /D _ATL_DLL /Gm /EHa /RTC1 /MTd /GS /Gy /fp:precise /Zc:wchar_t- /Zc:forScope /GR /Yu"stdafx.h" /Fp"DEBUGSTATIC\CTIADAPTERLIB.PCH" /Fo"DEBUGSTATIC\\" /Fd"DEBUGSTATIC\VC110.PDB" /Gd /TP /analyze- C:\PROGRAM FILES (X86)\SALESFORCE.COM\CTI TOOLKIT 4.03\DEMOCTIADAPTER\SRC\CTIADAPTERLIB\CTIAPPEXCHANGESEARCHTHREAD.CPP
^C:\PROGRAM FILES (X86)\SALESFORCE.COM\CTI TOOLKIT 4.03\DEMOCTIADAPTER\SRC\CTIADAPTERLIB\CTIBUTTON.CPP
/c /I.\include /Zi /nologo /W3 /WX- /Od /Oy- /D WIN32 /D _DEBUG /D _LIB /D _UNICODE /D _VC80_UPGRADE=0x0710 /D _UNICODE /D UNICODE /D _ATL_DLL /Gm /EHa /RTC1 /MTd /GS /Gy /fp:precise /Zc:wchar_t- /Zc:forScope /GR /Yu"stdafx.h" /Fp"DEBUGSTATIC\CTIADAPTERLIB.PCH" /Fo"DEBUGSTATIC\\" /Fd"DEBUGSTATIC\VC110.PDB" /Gd /TP /analyze- C:\PROGRAM FILES (X86)\SALESFORCE.COM\CTI TOOLKIT 4.03\DEMOCTIADAPTER\SRC\CTIADAPTERLIB\CTIBUTTON.CPP
^C:\PROGRAM FILES (X86)\SALESFORCE.COM\CTI TOOLKIT 4.03\DEMOCTIADAPTER\SRC\CTIADAPTERLIB\CTICALLLOG.CPP
/c /I.\include /Zi /nologo /W3 /WX- /Od /Oy- /D WIN32 /D _DEBUG /D _LIB /D _UNICODE /D _VC80_UPGRADE=0x0710 /D _UNICODE /D UNICODE /D _ATL_DLL /Gm /EHa /RTC1 /MTd /GS /Gy /fp:precise /Zc:wchar_t- /Zc:forScope /GR /Yu"stdafx.h" /Fp"DEBUGSTATIC\CTIADAPTERLIB.PCH" /Fo"DEBUGSTATIC\\" /Fd"DEBUGSTATIC\VC110.PDB" /Gd /TP /analyze- C:\PROGRAM FILES (X86)\SALESFORCE.COM\CTI TOOLKIT 4.03\DEMOCTIADAPTER\SRC\CTIADAPTERLIB\CTICALLLOG.CPP
^C:\PROGRAM FILES (X86)\SALESFORCE.COM\CTI TOOLKIT 4.03\DEMOCTIADAPTER\SRC\CTIADAPTERLIB\CTICHECKBOX.CPP
/c /I.\include /Zi /nologo /W3 /WX- /Od /Oy- /D WIN32 /D _DEBUG /D _LIB /D _UNICODE /D _VC80_UPGRADE=0x0710 /D _UNICODE /D UNICODE /D _ATL_DLL /Gm /EHa /RTC1 /MTd /GS /Gy /fp:precise /Zc:wchar_t- /Zc:forScope /GR /Yu"stdafx.h" /Fp"DEBUGSTATIC\CTIADAPTERLIB.PCH" /Fo"DEBUGSTATIC\\" /Fd"DEBUGSTATIC\VC110.PDB" /Gd /TP /analyze- C:\PROGRAM FILES (X86)\SALESFORCE.COM\CTI TOOLKIT 4.03\DEMOCTIADAPTER\SRC\CTIADAPTERLIB\CTICHECKBOX.CPP
^C:\PROGRAM FILES (X86)\SALESFORCE.COM\CTI TOOLKIT 4.03\DEMOCTIADAPTER\SRC\CTIADAPTERLIB\CTICONSTANTS.CPP
/c /I.\include /Zi /nologo /W3 /WX- /Od /Oy- /D WIN32 /D _DEBUG /D _LIB /D _UNICODE /D _VC80_UPGRADE=0x0710 /D _UNICODE /D UNICODE /D _ATL_DLL /Gm /EHa /RTC1 /MTd /GS /Gy /fp:precise /Zc:wchar_t- /Zc:forScope /GR /Yu"stdafx.h" /Fp"DEBUGSTATIC\CTIADAPTERLIB.PCH" /Fo"DEBUGSTATIC\\" /Fd"DEBUGSTATIC\VC110.PDB" /Gd /TP /analyze- C:\PROGRAM FILES (X86)\SALESFORCE.COM\CTI TOOLKIT 4.03\DEMOCTIADAPTER\SRC\CTIADAPTERLIB\CTICONSTANTS.CPP
^C:\PROGRAM FILES (X86)\SALESFORCE.COM\CTI TOOLKIT 4.03\DEMOCTIADAPTER\SRC\CTIADAPTERLIB\CTIDIALPAD.CPP
/c /I.\include /Zi /nologo /W3 /WX- /Od /Oy- /D WIN32 /D _DEBUG /D _LIB /D _UNICODE /D _VC80_UPGRADE=0x0710 /D _UNICODE /D UNICODE /D _ATL_DLL /Gm /EHa /RTC1 /MTd /GS /Gy /fp:precise /Zc:wchar_t- /Zc:forScope /GR /Yu"stdafx.h" /Fp"DEBUGSTATIC\CTIADAPTERLIB.PCH" /Fo"DEBUGSTATIC\\" /Fd"DEBUGSTATIC\VC110.PDB" /Gd /TP /analyze- C:\PROGRAM FILES (X86)\SALESFORCE.COM\CTI TOOLKIT 4.03\DEMOCTIADAPTER\SRC\CTIADAPTERLIB\CTIDIALPAD.CPP
^C:\PROGRAM FILES (X86)\SALESFORCE.COM\CTI TOOLKIT 4.03\DEMOCTIADAPTER\SRC\CTIADAPTERLIB\CTIEDITBOX.CPP
/c /I.\include /Zi /nologo /W3 /WX- /Od /Oy- /D WIN32 /D _DEBUG /D _LIB /D _UNICODE /D _VC80_UPGRADE=0x0710 /D _UNICODE /D UNICODE /D _ATL_DLL /Gm /EHa /RTC1 /MTd /GS /Gy /fp:precise /Zc:wchar_t- /Zc:forScope /GR /Yu"stdafx.h" /Fp"DEBUGSTATIC\CTIADAPTERLIB.PCH" /Fo"DEBUGSTATIC\\" /Fd"DEBUGSTATIC\VC110.PDB" /Gd /TP /analyze- C:\PROGRAM FILES (X86)\SALESFORCE.COM\CTI TOOLKIT 4.03\DEMOCTIADAPTER\SRC\CTIADAPTERLIB\CTIEDITBOX.CPP
^C:\PROGRAM FILES (X86)\SALESFORCE.COM\CTI TOOLKIT 4.03\DEMOCTIADAPTER\SRC\CTIADAPTERLIB\CTIFIELD.CPP
/c /I.\include /Zi /nologo /W3 /WX- /Od /Oy- /D WIN32 /D _DEBUG /D _LIB /D _UNICODE /D _VC80_UPGRADE=0x0710 /D _UNICODE /D UNICODE /D _ATL_DLL /Gm /EHa /RTC1 /MTd /GS /Gy /fp:precise /Zc:wchar_t- /Zc:forScope /GR /Yu"stdafx.h" /Fp"DEBUGSTATIC\CTIADAPTERLIB.PCH" /Fo"DEBUGSTATIC\\" /Fd"DEBUGSTATIC\VC110.PDB" /Gd /TP /analyze- C:\PROGRAM FILES (X86)\SALESFORCE.COM\CTI TOOLKIT 4.03\DEMOCTIADAPTER\SRC\CTIADAPTERLIB\CTIFIELD.CPP
^C:\PROGRAM FILES (X86)\SALESFORCE.COM\CTI TOOLKIT 4.03\DEMOCTIADAPTER\SRC\CTIADAPTERLIB\CTIFORM.CPP
/c /I.\include /Zi /nologo /W3 /WX- /Od /Oy- /D WIN32 /D _DEBUG /D _LIB /D _UNICODE /D _VC80_UPGRADE=0x0710 /D _UNICODE /D UNICODE /D _ATL_DLL /Gm /EHa /RTC1 /MTd /GS /Gy /fp:precise /Zc:wchar_t- /Zc:forScope /GR /Yu"stdafx.h" /Fp"DEBUGSTATIC\CTIADAPTERLIB.PCH" /Fo"DEBUGSTATIC\\" /Fd"DEBUGSTATIC\VC110.PDB" /Gd /TP /analyze- C:\PROGRAM FILES (X86)\SALESFORCE.COM\CTI TOOLKIT 4.03\DEMOCTIADAPTER\SRC\CTIADAPTERLIB\CTIFORM.CPP
^C:\PROGRAM FILES (X86)\SALESFORCE.COM\CTI TOOLKIT 4.03\DEMOCTIADAPTER\SRC\CTIADAPTERLIB\CTIIDLABELOBJECT.CPP
/c /I.\include /Zi /nologo /W3 /WX- /Od /Oy- /D WIN32 /D _DEBUG /D _LIB /D _UNICODE /D _VC80_UPGRADE=0x0710 /D _UNICODE /D UNICODE /D _ATL_DLL /Gm /EHa /RTC1 /MTd /GS /Gy /fp:precise /Zc:wchar_t- /Zc:forScope /GR /Yu"stdafx.h" /Fp"DEBUGSTATIC\CTIADAPTERLIB.PCH" /Fo"DEBUGSTATIC\\" /Fd"DEBUGSTATIC\VC110.PDB" /Gd /TP /analyze- C:\PROGRAM FILES (X86)\SALESFORCE.COM\CTI TOOLKIT 4.03\DEMOCTIADAPTER\SRC\CTIADAPTERLIB\CTIIDLABELOBJECT.CPP
^C:\PROGRAM FILES (X86)\SALESFORCE.COM\CTI TOOLKIT 4.03\DEMOCTIADAPTER\SRC\CTIADAPTERLIB\CTIINFOFIELD.CPP
/c /I.\include /Zi /nologo /W3 /WX- /Od /Oy- /D WIN32 /D _DEBUG /D _LIB /D _UNICODE /D _VC80_UPGRADE=0x0710 /D _UNICODE /D UNICODE /D _ATL_DLL /Gm /EHa /RTC1 /MTd /GS /Gy /fp:precise /Zc:wchar_t- /Zc:forScope /GR /Yu"stdafx.h" /Fp"DEBUGSTATIC\CTIADAPTERLIB.PCH" /Fo"DEBUGSTATIC\\" /Fd"DEBUGSTATIC\VC110.PDB" /Gd /TP /analyze- C:\PROGRAM FILES (X86)\SALESFORCE.COM\CTI TOOLKIT 4.03\DEMOCTIADAPTER\SRC\CTIADAPTERLIB\CTIINFOFIELD.CPP
^C:\PROGRAM FILES (X86)\SALESFORCE.COM\CTI TOOLKIT 4.03\DEMOCTIADAPTER\SRC\CTIADAPTERLIB\CTILINE.CPP
/c /I.\include /Zi /nologo /W3 /WX- /Od /Oy- /D WIN32 /D _DEBUG /D _LIB /D _UNICODE /D _VC80_UPGRADE=0x0710 /D _UNICODE /D UNICODE /D _ATL_DLL /Gm /EHa /RTC1 /MTd /GS /Gy /fp:precise /Zc:wchar_t- /Zc:forScope /GR /Yu"stdafx.h" /Fp"DEBUGSTATIC\CTIADAPTERLIB.PCH" /Fo"DEBUGSTATIC\\" /Fd"DEBUGSTATIC\VC110.PDB" /Gd /TP /analyze- C:\PROGRAM FILES (X86)\SALESFORCE.COM\CTI TOOLKIT 4.03\DEMOCTIADAPTER\SRC\CTIADAPTERLIB\CTILINE.CPP
^C:\PROGRAM FILES (X86)\SALESFORCE.COM\CTI TOOLKIT 4.03\DEMOCTIADAPTER\SRC\CTIADAPTERLIB\CTILOGGER.CPP
/c /I.\include /Zi /nologo /W3 /WX- /Od /Oy- /D WIN32 /D _DEBUG /D _LIB /D _UNICODE /D _VC80_UPGRADE=0x0710 /D _UNICODE /D UNICODE /D _ATL_DLL /Gm /EHa /RTC1 /MTd /GS /Gy /fp:precise /Zc:wchar_t- /Zc:forScope /GR /Yu"stdafx.h" /Fp"DEBUGSTATIC\CTIADAPTERLIB.PCH" /Fo"DEBUGSTATIC\\" /Fd"DEBUGSTATIC\VC110.PDB" /Gd /TP /analyze- C:\PROGRAM FILES (X86)\SALESFORCE.COM\CTI TOOLKIT 4.03\DEMOCTIADAPTER\SRC\CTIADAPTERLIB\CTILOGGER.CPP
^C:\PROGRAM FILES (X86)\SALESFORCE.COM\CTI TOOLKIT 4.03\DEMOCTIADAPTER\SRC\CTIADAPTERLIB\CTILOGO.CPP
/c /I.\include /Zi /nologo /W3 /WX- /Od /Oy- /D WIN32 /D _DEBUG /D _LIB /D _UNICODE /D _VC80_UPGRADE=0x0710 /D _UNICODE /D UNICODE /D _ATL_DLL /Gm /EHa /RTC1 /MTd /GS /Gy /fp:precise /Zc:wchar_t- /Zc:forScope /GR /Yu"stdafx.h" /Fp"DEBUGSTATIC\CTIADAPTERLIB.PCH" /Fo"DEBUGSTATIC\\" /Fd"DEBUGSTATIC\VC110.PDB" /Gd /TP /analyze- C:\PROGRAM FILES (X86)\SALESFORCE.COM\CTI TOOLKIT 4.03\DEMOCTIADAPTER\SRC\CTIADAPTERLIB\CTILOGO.CPP
^C:\PROGRAM FILES (X86)\SALESFORCE.COM\CTI TOOLKIT 4.03\DEMOCTIADAPTER\SRC\CTIADAPTERLIB\CTINORELATEDOBJECTSET.CPP
/c /I.\include /Zi /nologo /W3 /WX- /Od /Oy- /D WIN32 /D _DEBUG /D _LIB /D _UNICODE /D _VC80_UPGRADE=0x0710 /D _UNICODE /D UNICODE /D _ATL_DLL /Gm /EHa /RTC1 /MTd /GS /Gy /fp:precise /Zc:wchar_t- /Zc:forScope /GR /Yu"stdafx.h" /Fp"DEBUGSTATIC\CTIADAPTERLIB.PCH" /Fo"DEBUGSTATIC\\" /Fd"DEBUGSTATIC\VC110.PDB" /Gd /TP /analyze- C:\PROGRAM FILES (X86)\SALESFORCE.COM\CTI TOOLKIT 4.03\DEMOCTIADAPTER\SRC\CTIADAPTERLIB\CTINORELATEDOBJECTSET.CPP
^C:\PROGRAM FILES (X86)\SALESFORCE.COM\CTI TOOLKIT 4.03\DEMOCTIADAPTER\SRC\CTIADAPTERLIB\CTIOBJECT.CPP
/c /I.\include /Zi /nologo /W3 /WX- /Od /Oy- /D WIN32 /D _DEBUG /D _LIB /D _UNICODE /D _VC80_UPGRADE=0x0710 /D _UNICODE /D UNICODE /D _ATL_DLL /Gm /EHa /RTC1 /MTd /GS /Gy /fp:precise /Zc:wchar_t- /Zc:forScope /GR /Yu"stdafx.h" /Fp"DEBUGSTATIC\CTIADAPTERLIB.PCH" /Fo"DEBUGSTATIC\\" /Fd"DEBUGSTATIC\VC110.PDB" /Gd /TP /analyze- C:\PROGRAM FILES (X86)\SALESFORCE.COM\CTI TOOLKIT 4.03\DEMOCTIADAPTER\SRC\CTIADAPTERLIB\CTIOBJECT.CPP
^C:\PROGRAM FILES (X86)\SALESFORCE.COM\CTI TOOLKIT 4.03\DEMOCTIADAPTER\SRC\CTIADAPTERLIB\CTIPARTY.CPP
/c /I.\include /Zi /nologo /W3 /WX- /Od /Oy- /D WIN32 /D _DEBUG /D _LIB /D _UNICODE /D _VC80_UPGRADE=0x0710 /D _UNICODE /D UNICODE /D _ATL_DLL /Gm /EHa /RTC1 /MTd /GS /Gy /fp:precise /Zc:wchar_t- /Zc:forScope /GR /Yu"stdafx.h" /Fp"DEBUGSTATIC\CTIADAPTERLIB.PCH" /Fo"DEBUGSTATIC\\" /Fd"DEBUGSTATIC\VC110.PDB" /Gd /TP /analyze- C:\PROGRAM FILES (X86)\SALESFORCE.COM\CTI TOOLKIT 4.03\DEMOCTIADAPTER\SRC\CTIADAPTERLIB\CTIPARTY.CPP
^C:\PROGRAM FILES (X86)\SALESFORCE.COM\CTI TOOLKIT 4.03\DEMOCTIADAPTER\SRC\CTIADAPTERLIB\CTIPAYLOAD.CPP
/c /I.\include /Zi /nologo /W3 /WX- /Od /Oy- /D WIN32 /D _DEBUG /D _LIB /D _UNICODE /D _VC80_UPGRADE=0x0710 /D _UNICODE /D UNICODE /D _ATL_DLL /Gm /EHa /RTC1 /MTd /GS /Gy /fp:precise /Zc:wchar_t- /Zc:forScope /GR /Yu"stdafx.h" /Fp"DEBUGSTATIC\CTIADAPTERLIB.PCH" /Fo"DEBUGSTATIC\\" /Fd"DEBUGSTATIC\VC110.PDB" /Gd /TP /analyze- C:\PROGRAM FILES (X86)\SALESFORCE.COM\CTI TOOLKIT 4.03\DEMOCTIADAPTER\SRC\CTIADAPTERLIB\CTIPAYLOAD.CPP
^C:\PROGRAM FILES (X86)\SALESFORCE.COM\CTI TOOLKIT 4.03\DEMOCTIADAPTER\SRC\CTIADAPTERLIB\CTIPAYLOADDATA.CPP
/c /I.\include /Zi /nologo /W3 /WX- /Od /Oy- /D WIN32 /D _DEBUG /D _LIB /D _UNICODE /D _VC80_UPGRADE=0x0710 /D _UNICODE /D UNICODE /D _ATL_DLL /Gm /EHa /RTC1 /MTd /GS /Gy /fp:precise /Zc:wchar_t- /Zc:forScope /GR /Yu"stdafx.h" /Fp"DEBUGSTATIC\CTIADAPTERLIB.PCH" /Fo"DEBUGSTATIC\\" /Fd"DEBUGSTATIC\VC110.PDB" /Gd /TP /analyze- C:\PROGRAM FILES (X86)\SALESFORCE.COM\CTI TOOLKIT 4.03\DEMOCTIADAPTER\SRC\CTIADAPTERLIB\CTIPAYLOADDATA.CPP
^C:\PROGRAM FILES (X86)\SALESFORCE.COM\CTI TOOLKIT 4.03\DEMOCTIADAPTER\SRC\CTIADAPTERLIB\CTIPREVIOUSCALLS.CPP
/c /I.\include /Zi /nologo /W3 /WX- /Od /Oy- /D WIN32 /D _DEBUG /D _LIB /D _UNICODE /D _VC80_UPGRADE=0x0710 /D _UNICODE /D UNICODE /D _ATL_DLL /Gm /EHa /RTC1 /MTd /GS /Gy /fp:precise /Zc:wchar_t- /Zc:forScope /GR /Yu"stdafx.h" /Fp"DEBUGSTATIC\CTIADAPTERLIB.PCH" /Fo"DEBUGSTATIC\\" /Fd"DEBUGSTATIC\VC110.PDB" /Gd /TP /analyze- C:\PROGRAM FILES (X86)\SALESFORCE.COM\CTI TOOLKIT 4.03\DEMOCTIADAPTER\SRC\CTIADAPTERLIB\CTIPREVIOUSCALLS.CPP
^C:\PROGRAM FILES (X86)\SALESFORCE.COM\CTI TOOLKIT 4.03\DEMOCTIADAPTER\SRC\CTIADAPTERLIB\CTIPROGRESSBAR.CPP
/c /I.\include /Zi /nologo /W3 /WX- /Od /Oy- /D WIN32 /D _DEBUG /D _LIB /D _UNICODE /D _VC80_UPGRADE=0x0710 /D _UNICODE /D UNICODE /D _ATL_DLL /Gm /EHa /RTC1 /MTd /GS /Gy /fp:precise /Zc:wchar_t- /Zc:forScope /GR /Yu"stdafx.h" /Fp"DEBUGSTATIC\CTIADAPTERLIB.PCH" /Fo"DEBUGSTATIC\\" /Fd"DEBUGSTATIC\VC110.PDB" /Gd /TP /analyze- C:\PROGRAM FILES (X86)\SALESFORCE.COM\CTI TOOLKIT 4.03\DEMOCTIADAPTER\SRC\CTIADAPTERLIB\CTIPROGRESSBAR.CPP
^C:\PROGRAM FILES (X86)\SALESFORCE.COM\CTI TOOLKIT 4.03\DEMOCTIADAPTER\SRC\CTIADAPTERLIB\CTIREASONCODESET.CPP
/c /I.\include /Zi /nologo /W3 /WX- /Od /Oy- /D WIN32 /D _DEBUG /D _LIB /D _UNICODE /D _VC80_UPGRADE=0x0710 /D _UNICODE /D UNICODE /D _ATL_DLL /Gm /EHa /RTC1 /MTd /GS /Gy /fp:precise /Zc:wchar_t- /Zc:forScope /GR /Yu"stdafx.h" /Fp"DEBUGSTATIC\CTIADAPTERLIB.PCH" /Fo"DEBUGSTATIC\\" /Fd"DEBUGSTATIC\VC110.PDB" /Gd /TP /analyze- C:\PROGRAM FILES (X86)\SALESFORCE.COM\CTI TOOLKIT 4.03\DEMOCTIADAPTER\SRC\CTIADAPTERLIB\CTIREASONCODESET.CPP
^C:\PROGRAM FILES (X86)\SALESFORCE.COM\CTI TOOLKIT 4.03\DEMOCTIADAPTER\SRC\CTIADAPTERLIB\CTIRELATEDOBJECT.CPP
/c /I.\include /Zi /nologo /W3 /WX- /Od /Oy- /D WIN32 /D _DEBUG /D _LIB /D _UNICODE /D _VC80_UPGRADE=0x0710 /D _UNICODE /D UNICODE /D _ATL_DLL /Gm /EHa /RTC1 /MTd /GS /Gy /fp:precise /Zc:wchar_t- /Zc:forScope /GR /Yu"stdafx.h" /Fp"DEBUGSTATIC\CTIADAPTERLIB.PCH" /Fo"DEBUGSTATIC\\" /Fd"DEBUGSTATIC\VC110.PDB" /Gd /TP /analyze- C:\PROGRAM FILES (X86)\SALESFORCE.COM\CTI TOOLKIT 4.03\DEMOCTIADAPTER\SRC\CTIADAPTERLIB\CTIRELATEDOBJECT.CPP
^C:\PROGRAM FILES (X86)\SALESFORCE.COM\CTI TOOLKIT 4.03\DEMOCTIADAPTER\SRC\CTIADAPTERLIB\CTIRELATEDOBJECTSET.CPP
/c /I.\include /Zi /nologo /W3 /WX- /Od /Oy- /D WIN32 /D _DEBUG /D _LIB /D _UNICODE /D _VC80_UPGRADE=0x0710 /D _UNICODE /D UNICODE /D _ATL_DLL /Gm /EHa /RTC1 /MTd /GS /Gy /fp:precise /Zc:wchar_t- /Zc:forScope /GR /Yu"stdafx.h" /Fp"DEBUGSTATIC\CTIADAPTERLIB.PCH" /Fo"DEBUGSTATIC\\" /Fd"DEBUGSTATIC\VC110.PDB" /Gd /TP /analyze- C:\PROGRAM FILES (X86)\SALESFORCE.COM\CTI TOOLKIT 4.03\DEMOCTIADAPTER\SRC\CTIADAPTERLIB\CTIRELATEDOBJECTSET.CPP
^C:\PROGRAM FILES (X86)\SALESFORCE.COM\CTI TOOLKIT 4.03\DEMOCTIADAPTER\SRC\CTIADAPTERLIB\CTISELECTABLEIDLABELOBJECT.CPP
/c /I.\include /Zi /nologo /W3 /WX- /Od /Oy- /D WIN32 /D _DEBUG /D _LIB /D _UNICODE /D _VC80_UPGRADE=0x0710 /D _UNICODE /D UNICODE /D _ATL_DLL /Gm /EHa /RTC1 /MTd /GS /Gy /fp:precise /Zc:wchar_t- /Zc:forScope /GR /Yu"stdafx.h" /Fp"DEBUGSTATIC\CTIADAPTERLIB.PCH" /Fo"DEBUGSTATIC\\" /Fd"DEBUGSTATIC\VC110.PDB" /Gd /TP /analyze- C:\PROGRAM FILES (X86)\SALESFORCE.COM\CTI TOOLKIT 4.03\DEMOCTIADAPTER\SRC\CTIADAPTERLIB\CTISELECTABLEIDLABELOBJECT.CPP
^C:\PROGRAM FILES (X86)\SALESFORCE.COM\CTI TOOLKIT 4.03\DEMOCTIADAPTER\SRC\CTIADAPTERLIB\CTISTATIC.CPP
/c /I.\include /Zi /nologo /W3 /WX- /Od /Oy- /D WIN32 /D _DEBUG /D _LIB /D _UNICODE /D _VC80_UPGRADE=0x0710 /D _UNICODE /D UNICODE /D _ATL_DLL /Gm /EHa /RTC1 /MTd /GS /Gy /fp:precise /Zc:wchar_t- /Zc:forScope /GR /Yu"stdafx.h" /Fp"DEBUGSTATIC\CTIADAPTERLIB.PCH" /Fo"DEBUGSTATIC\\" /Fd"DEBUGSTATIC\VC110.PDB" /Gd /TP /analyze- C:\PROGRAM FILES (X86)\SALESFORCE.COM\CTI TOOLKIT 4.03\DEMOCTIADAPTER\SRC\CTIADAPTERLIB\CTISTATIC.CPP
^C:\PROGRAM FILES (X86)\SALESFORCE.COM\CTI TOOLKIT 4.03\DEMOCTIADAPTER\SRC\CTIADAPTERLIB\CTITIMER.CPP
/c /I.\include /Zi /nologo /W3 /WX- /Od /Oy- /D WIN32 /D _DEBUG /D _LIB /D _UNICODE /D _VC80_UPGRADE=0x0710 /D _UNICODE /D UNICODE /D _ATL_DLL /Gm /EHa /RTC1 /MTd /GS /Gy /fp:precise /Zc:wchar_t- /Zc:forScope /GR /Yu"stdafx.h" /Fp"DEBUGSTATIC\CTIADAPTERLIB.PCH" /Fo"DEBUGSTATIC\\" /Fd"DEBUGSTATIC\VC110.PDB" /Gd /TP /analyze- C:\PROGRAM FILES (X86)\SALESFORCE.COM\CTI TOOLKIT 4.03\DEMOCTIADAPTER\SRC\CTIADAPTERLIB\CTITIMER.CPP
^C:\PROGRAM FILES (X86)\SALESFORCE.COM\CTI TOOLKIT 4.03\DEMOCTIADAPTER\SRC\CTIADAPTERLIB\CTIUSERINTERFACE.CPP
/c /I.\include /Zi /nologo /W3 /WX- /Od /Oy- /D WIN32 /D _DEBUG /D _LIB /D _UNICODE /D _VC80_UPGRADE=0x0710 /D _UNICODE /D UNICODE /D _ATL_DLL /Gm /EHa /RTC1 /MTd /GS /Gy /fp:precise /Zc:wchar_t- /Zc:forScope /GR /Yu"stdafx.h" /Fp"DEBUGSTATIC\CTIADAPTERLIB.PCH" /Fo"DEBUGSTATIC\\" /Fd"DEBUGSTATIC\VC110.PDB" /Gd /TP /analyze- C:\PROGRAM FILES (X86)\SALESFORCE.COM\CTI TOOLKIT 4.03\DEMOCTIADAPTER\SRC\CTIADAPTERLIB\CTIUSERINTERFACE.CPP
^C:\PROGRAM FILES (X86)\SALESFORCE.COM\CTI TOOLKIT 4.03\DEMOCTIADAPTER\SRC\CTIADAPTERLIB\CTIUTILS.CPP
/c /I.\include /Zi /nologo /W3 /WX- /Od /Oy- /D WIN32 /D _DEBUG /D _LIB /D _UNICODE /D _VC80_UPGRADE=0x0710 /D _UNICODE /D UNICODE /D _ATL_DLL /Gm /EHa /RTC1 /MTd /GS /Gy /fp:precise /Zc:wchar_t- /Zc:forScope /GR /Yu"stdafx.h" /Fp"DEBUGSTATIC\CTIADAPTERLIB.PCH" /Fo"DEBUGSTATIC\\" /Fd"DEBUGSTATIC\VC110.PDB" /Gd /TP /analyze- C:\PROGRAM FILES (X86)\SALESFORCE.COM\CTI TOOLKIT 4.03\DEMOCTIADAPTER\SRC\CTIADAPTERLIB\CTIUTILS.CPP
^C:\PROGRAM FILES (X86)\SALESFORCE.COM\CTI TOOLKIT 4.03\DEMOCTIADAPTER\SRC\CTIADAPTERLIB\CTIVALUEOBJECT.CPP
/c /I.\include /Zi /nologo /W3 /WX- /Od /Oy- /D WIN32 /D _DEBUG /D _LIB /D _UNICODE /D _VC80_UPGRADE=0x0710 /D _UNICODE /D UNICODE /D _ATL_DLL /Gm /EHa /RTC1 /MTd /GS /Gy /fp:precise /Zc:wchar_t- /Zc:forScope /GR /Yu"stdafx.h" /Fp"DEBUGSTATIC\CTIADAPTERLIB.PCH" /Fo"DEBUGSTATIC\\" /Fd"DEBUGSTATIC\VC110.PDB" /Gd /TP /analyze- C:\PROGRAM FILES (X86)\SALESFORCE.COM\CTI TOOLKIT 4.03\DEMOCTIADAPTER\SRC\CTIADAPTERLIB\CTIVALUEOBJECT.CPP
